…
(2-2a) Find how many names are there for each iso-2 code. Are there any
iso-2 codes that correspond to more than one name? What are these
countries?

``` r
gap %>% 
  group_by(iso2) %>% 
  summarise(num = n_distinct(name)) %>% 
  arrange(desc(num))
```

    ## # A tibble: 249 × 2
    ##    iso2    num
    ##    <chr> <int>
    ##  1 <NA>      2
    ##  2 AD        1
    ##  3 AE        1
    ##  4 AF        1
    ##  5 AG        1
    ##  6 AI        1
    ##  7 AL        1
    ##  8 AM        1
    ##  9 AO        1
    ## 10 AQ        1
    ## # … with 239 more rows
…
One of these countries is Namibia and the other is a country that
doesn’t have an iso2 code so it’s listed as “NA.”

(2-2b) Now repeat the same for name and iso3-code. Are there country
names that have more than one iso3-code? What are these countries? Hint:
two of these entitites are CHANISL and NLD CURACAO.

``` r
gap %>% 
  group_by(name) %>% 
  summarise(num = n_distinct(iso3)) %>% 
  arrange(desc(num))
```

    ## # A tibble: 250 × 2
    ##    name                  num
    ##    <chr>               <int>
    ##  1 <NA>                    4
    ##  2 Afghanistan             1
    ##  3 Albania                 1
    ##  4 Algeria                 1
    ##  5 American Samoa          1
    ##  6 Andorra                 1
    ##  7 Angola                  1
    ##  8 Anguilla                1
    ##  9 Antarctica              1
    ## 10 Antigua and Barbuda     1
    ## # … with 240 more rows
…
(3-1) How many missing co2 emissions are there for each year? Analyze
both missing CO2 and co2_PC. Which years have most missing data?

``` r
total_missing_co2 <- gap %>%
  group_by(time) %>% 
  summarise(missing_co2 = sum(is.na(co2)),
            missing_co2_pc = sum(is.na(co2_PC)))
total_missing_co2
```

    ## # A tibble: 61 × 3
    ##     time missing_co2 missing_co2_pc
    ##    <dbl>       <int>          <int>
    ##  1  1960          60             60
    ##  2  1961          60             60
    ##  3  1962          58             58
    ##  4  1963          57             57
    ##  5  1964          51             51
    ##  6  1965          51             51
    ##  7  1966          51             51
    ##  8  1967          51             51
    ##  9  1968          51             51
    ## 10  1969          51             51
    ## # … with 51 more rows
…
